"2,""m0l0l0v"""
"66,""Ares"""
"71,""bL@CkOuT"""
"74,""Carpinteir0"""
"32,""polle pedal"""
"55,""Alva"""
"5,""Allahsnackbar"""
"31,""BaRaBaS"""
"62,""Soda  Pop Fy"""
"77,""wikke"""
"79,""Peace"""
"22,""vuilekameel"""
"81,""Legz"""
"82,""Lonewulf"""
"83,""sgt. lili"""
"90,""St.Phano"""
"59,""berre"""
"100,""Lucifer"""
"80,""fuse"""
"95,""bRO"""
"107,""fullmoon"""
"108,""BlueIce"""
"64,""PainKiller"""
"110,""sirsnoop"""
"111,""sander"""
